\relax 
\catcode `"\active 
\citation{conceito:2017}
\citation{sebraemercados:2017}
\select@language{brazil}
\@writefile{toc}{\select@language{brazil}}
\@writefile{lof}{\select@language{brazil}}
\@writefile{lot}{\select@language{brazil}}
\@writefile{toc}{\contentsline {section}{\numberline {1}Introdu\IeC {\c c}\IeC {\~a}o}{1}}
\citation{conceito:2017}
\citation{albertin:2010}
\citation{sebraemercados:2017}
\citation{Ecommercebrasil:2017}
\citation{extra:2017}
\citation{epoca:2017}
\citation{3dtotal:2017}
\citation{tecmundo:2013}
\@writefile{toc}{\contentsline {section}{\numberline {2}Defini\IeC {\c c}\IeC {\~a}o do problema e justificativa}{2}}
\newlabel{sec:firstpage}{{2}{2}}
\newlabel{sec:figs}{{2}{2}}
\citation{tecmundo:2013}
\citation{significados:2017}
\citation{shapeways:2017}
\citation{materialise:2017}
\citation{3dprintingreviews:2013}
\citation{Lojanama:2017}
\@writefile{toc}{\contentsline {subsection}{\numberline {2.1}Fundamenta\IeC {\c c}\IeC {\~a}o Te\IeC {\'o}rica e Trabalhos Relacionados}{3}}
\@writefile{lof}{\contentsline {figure}{\numberline {1}{\ignorespaces Tela de identifica\IeC {\c c}\IeC {\~a}o de pre\IeC {\c c}os do site da Loja Nama.}}{3}}
\newlabel{fig:exampleFig1}{{1}{3}}
\@writefile{lof}{\contentsline {figure}{\numberline {2}{\ignorespaces Tela de identifica\IeC {\c c}\IeC {\~a}o do conte\IeC {\'u}do no rodap\IeC {\'e} do site.}}{4}}
\newlabel{fig:exampleFig2}{{2}{4}}
\@writefile{toc}{\contentsline {section}{\numberline {3}Objetivos}{4}}
\citation{sommerville:2011}
\@writefile{toc}{\contentsline {section}{\numberline {4}Metodologia}{5}}
\@writefile{toc}{\contentsline {subsection}{\numberline {4.1}Descri\IeC {\c c}\IeC {\~a}o do software}{5}}
\@writefile{toc}{\contentsline {subsection}{\numberline {4.2}Requisitos Funcionais}{5}}
\citation{sommerville:2011}
\citation{guedes:2008}
\@writefile{toc}{\contentsline {subsection}{\numberline {4.3}Requisitos N\IeC {\~a}o Funcionais}{7}}
\@writefile{toc}{\contentsline {subsection}{\numberline {4.4}Diagrama de casos de uso}{7}}
\citation{sommerville:2011}
\@writefile{lof}{\contentsline {figure}{\numberline {3}{\ignorespaces Diagrama casos de uso.}}{8}}
\newlabel{fig:exampleFig3}{{3}{8}}
\@writefile{toc}{\contentsline {subsection}{\numberline {4.5}Diagrama de classe}{8}}
\citation{sistemabd:2006}
\@writefile{lof}{\contentsline {figure}{\numberline {4}{\ignorespaces Diagrama de classe.}}{9}}
\newlabel{fig:exampleFig4}{{4}{9}}
\@writefile{toc}{\contentsline {subsection}{\numberline {4.6}Modelo conceitual}{9}}
\newlabel{sec:figs}{{4.6}{9}}
\@writefile{lof}{\contentsline {figure}{\numberline {5}{\ignorespaces Modelo Conceitual do banco de dados.}}{9}}
\newlabel{fig:exampleFig5}{{5}{9}}
\bibstyle{sbc}
\bibdata{sbc-template}
\bibcite{3dprintingreviews:2013}{3DPrintingreviews 2013}
\bibcite{3dtotal:2017}{3DTotal 2017}
\bibcite{albertin:2010}{Albertin 2010}
\bibcite{conceito:2017}{Conceitos 2017}
\bibcite{guedes:2008}{Guedes 2008}
\bibcite{materialise:2017}{Materialise 2017}
\bibcite{Lojanama:2017}{Nama 2017}
\bibcite{Ecommercebrasil:2017}{NIERO 2017}
\bibcite{epoca:2017}{O~Globo 2017}
\bibcite{extra:2017}{RIBEIRO 2017}
\@writefile{toc}{\contentsline {section}{\numberline {5}Considera\IeC {\c c}\IeC {\~o}es Parciais e Trabalhos Futuros}{10}}
\bibcite{tecmundo:2013}{ROCHA 2013}
\bibcite{sebraemercados:2017}{Sebrae 2017}
\bibcite{shapeways:2017}{Shapeways 2017}
\bibcite{significados:2017}{Significados 2017}
\bibcite{sistemabd:2006}{Silberschatz et~al. 2006}
\bibcite{sommerville:2011}{Sommerville et~al. 2011}
